homework2
…
#question 9

flights_weather %>%
  select(dep_delay, temp, wind_speed, precip, visib)

# A tibble: 336,776 × 5
   dep_delay  temp wind_speed precip visib
       <dbl> <dbl>      <dbl>  <dbl> <dbl>
 1         2  39.0       12.7      0    10
 2         4  39.9       15.0      0    10
 3         2  39.0       15.0      0    10
 4        -1  39.0       15.0      0    10
 5        -6  39.9       16.1      0    10
 6        -4  39.0       12.7      0    10
 7        -5  37.9       11.5      0    10
 8        -3  39.9       16.1      0    10
 9        -3  37.9       13.8      0    10
10        -2  39.9       16.1      0    10
# ℹ 336,766 more rows
…
